{
  "class":"Enquiry",
  "name":"test",
  "caption":"Abortable test",
  "description":"should automatically discard if age<18",
  "dataDefinitions":[
    {
      "class":"Integer",
      "name":"age"
    }
  ],
  "sources":[
    {
      "type":"age"
    }
  ],
  "abortCondition":"is_known('age')&&age<18"
}
