{
  "class": "Decision",
  "name": "test",
  "description": "testing for pushing the result of a decision into a data item",
  "optional": false,
  "autonomous": true,
  "cyclic": false,
  "dataDefinitions": [{
    "class": "Text",
    "valueCondition": "result_of('test')",
    "name": "res",
    "multiValued": false,
    "warnings": []
  }],
  "candidates": [{
    "class": "Candidate",
    "recommendCondition": "true",
    "autoConfirmRecommended": true,
    "name": "one",
    "arguments": []
  }]
}
