{
  "class": "Decision",
  "name": "decision",
  "caption": "Decision",
  "description": "Patient is ${is_known('age') ? age : 'unknown'} years old",
  "meta": {
    "svg": {
      "width": 400,
      "height": 200
    },
    "pos": {
      "x": 190,
      "y": 100
    }
  },
  "dataDefinitions": [
    {
      "class": "Integer",
      "name": "age",
      "caption": "Age"
    }
  ],
  "candidates": [
    {
      "class": "Candidate",
      "recommendCondition": "net_support('allowed')>0",
      "name": "allowed",
      "caption": "Allowed",
      "description": "Patient is ${is_known('age') ? age : 'unknown'} years old",
      "arguments": [
        {
          "class": "Argument",
          "caption": "Must be eighteen or over",
          "description": "Patient is ${is_known('age') ? age : 'unknown'} years old",
          "support": 1,
          "activeCondition": "age>=18"
        }
      ]
    },
    {
      "class": "Candidate",
      "recommendCondition": "net_support('disallowed')>0",
      "name": "disallowed",
      "caption": "Disallowed",
      "description": "Patient is ${is_known('age') ? age : 'unknown'} years old",
      "arguments": [
        {
          "class": "Argument",
          "caption": "Must be eighteen or over",
          "description": "Patient is ${is_known('age') ? age : 'unknown'} years old",
          "support": 1,
          "activeCondition": "age<18"
        }
      ]
    }
  ]
}
