{
  "name":"numeric_text",
  "class":"Task",
  "dataDefinitions":[
    {
      "defaultValue": "0",
      "name": "opts",
      "caption": "A pattern from repertoire",
      "description": "That created a validation issue in v0.2.1",
      "range": [
        "0",
        "1",
        "2"
      ],
      "class": "Text"
    }
  ]
}
